<?xml version="1.0" encoding="UTF-8"?>
<svg width="13px" height="7px" viewBox="0 0 13 7" version="1.1" xmlns="http://www.w3.org/2000/svg" xmlns:xlink="http://www.w3.org/1999/xlink">
    <!-- Generator: sketchtool 51.3 (57544) - http://www.bohemiancoding.com/sketch -->
    <title>C53E8A94-14F9-4865-B835-63C1991F7045</title>
    <desc>Created with sketchtool.</desc>
    <defs></defs>
    <g id="Page-1" stroke="none" stroke-width="1" fill="none" fill-rule="evenodd">
        <g id="Homepage" transform="translate(-963.000000, -59.000000)" fill="#000000" fill-rule="nonzero">
            <g id="Header" transform="translate(240.000000, 32.000000)">
                <g id="Group" transform="translate(604.000000, 0.000000)">
                    <path d="M124.112437,30.5 L128.743718,25.5851706 C129.085427,25.2225409 129.085427,24.634602 128.743718,24.2719723 C128.40201,23.9093426 127.84799,23.9093426 127.506282,24.2719723 L122.256282,29.8434008 C121.914573,30.2060305 121.914573,30.7939695 122.256282,31.1565992 L127.506282,36.7280277 C127.84799,37.0906574 128.40201,37.0906574 128.743718,36.7280277 C129.085427,36.365398 129.085427,35.7774591 128.743718,35.4148294 L124.112437,30.5 Z" id="Path" transform="translate(125.500000, 30.500000) rotate(-90.000000) translate(-125.500000, -30.500000) "></path>
                </g>
            </g>
        </g>
    </g>
</svg>