<svg xmlns="http://www.w3.org/2000/svg" width="60" height="60" viewBox="0 0 60 60">
    <g fill="none" fill-rule="nonzero">
        <path fill="#F00" d="M30 60C13.434 60 0 46.566 0 30 0 13.434 13.434 0 30 0c16.566 0 30 13.434 30 30 0 16.566-13.434 30-30 30z"/>
        <path fill="#FFF" d="M49.092 20.346A4.996 4.996 0 0 0 45.57 16.8c-3.108-.84-15.564-.84-15.564-.84s-12.462 0-15.564.84a4.996 4.996 0 0 0-3.522 3.546c-.84 3.126-.84 9.654-.84 9.654s0 6.528.834 9.654a4.996 4.996 0 0 0 3.522 3.546c3.108.84 15.564.84 15.564.84s12.462 0 15.564-.84a4.996 4.996 0 0 0 3.522-3.546c.834-3.126.834-9.654.834-9.654s0-6.528-.828-9.654zM25.926 35.922V24.078L36.336 30l-10.41 5.922z"/>
    </g>
</svg>
