<svg xmlns="http://www.w3.org/2000/svg" width="22" height="20" viewBox="0 0 22 20">
    <g fill="#4D4D4D" fill-rule="evenodd">
        <path d="M10.903.954c.6 5.852-2.84 8.293-3.815 8.861.008.06.012.125.012.19v8.35l1.603.882h8.431a.23.23 0 0 1 .052.004c1.942.266 2.019-2.03 2.019-2.316a.35.35 0 0 1 .209-.35c1.216-.524.7-2.167.653-2.308a.349.349 0 0 1 .173-.435c1.579-.766.584-2.143.455-2.317a.35.35 0 0 1-.036-.423c2.86-4.386-6.075-3.303-6.647-3.23a.333.333 0 0 1-.14 0 .345.345 0 0 1-.275-.407C14.931.7 11.857.772 10.895.945l.008.009zM6.528 18.456v-8.451a.708.708 0 0 0-.213-.512.722.722 0 0 0-.512-.213H1.332a.708.708 0 0 0-.512.213.722.722 0 0 0-.213.512v8.45c0 .202.08.383.213.512a.722.722 0 0 0 .512.214h4.471a.73.73 0 0 0 .717-.62c0-.025 0-.053.008-.077v-.028z"/>
    </g>
</svg>
