<svg xmlns="http://www.w3.org/2000/svg" width="106" height="60" viewBox="0 0 106 60">
    <path fill="#000" fill-rule="nonzero" d="M37.68 0h56.94c2.94 0 5.58 1.2 7.5 3.12 1.98 1.92 3.18 4.62 3.18 7.56V48.6c0 2.94-1.2 5.64-3.18 7.56a10.564 10.564 0 0 1-7.5 3.12H37.68c-2.94 0-5.58-1.2-7.5-3.12A10.511 10.511 0 0 1 27 48.6V10.68c0-2.94 1.2-5.64 3.18-7.56C32.1 1.2 34.74 0 37.68 0zM18.72 39.66c1.98 0 3.54 1.62 3.54 3.54 0 1.98-1.56 3.6-3.54 3.6h-3.3c-1.98 0-3.54-1.62-3.54-3.6 0-1.92 1.56-3.54 3.54-3.54h3.3zm0-27.18c1.98 0 3.54 1.62 3.54 3.6 0 1.92-1.56 3.54-3.54 3.54H3.54C1.62 19.62 0 18 0 16.08c0-1.98 1.62-3.6 3.54-3.6h15.18zm0 13.62c1.98 0 3.54 1.56 3.54 3.54s-1.56 3.54-3.54 3.54H9.48c-1.98 0-3.54-1.56-3.54-3.54S7.5 26.1 9.48 26.1h9.24zm15.42-14.94l32.04 19.26 31.98-19.26v-.48c0-.96-.42-1.86-1.02-2.52a3.537 3.537 0 0 0-2.52-1.02H37.68c-.96 0-1.86.36-2.52 1.02-.6.66-1.02 1.56-1.02 2.52v.48zm64.02 8.28L68.04 37.56a3.6 3.6 0 0 1-3.72 0L34.14 19.44V48.6c0 .96.42 1.86 1.02 2.52.66.66 1.56 1.02 2.52 1.02h56.94c.96 0 1.86-.36 2.52-1.02.6-.66 1.02-1.56 1.02-2.52V19.44z"/>
</svg>
